…
  Concentration of ozone (O3)

- pm10:

  Concentration of particulates (PM10)

- pm2.5:

  Concentration of fine particulates (PM2.5)

## Examples

``` r
traj_data
#> # A tibble: 5,432 × 17
#>    date                receptor  year month   day  hour hour.inc   lat    lon
#>    <dttm>                 <int> <dbl> <int> <int> <int>    <dbl> <dbl>  <dbl>
#>  1 2010-04-15 00:00:00        1  2010     4    15     0        0  51.5 -0.1  
#>  2 2010-04-15 00:00:00        1  2010     4    14    23       -1  51.7  0.139
#>  3 2010-04-15 00:00:00        1  2010     4    14    22       -2  51.9  0.378
#>  4 2010-04-15 00:00:00        1  2010     4    14    21       -3  52.1  0.618
#>  5 2010-04-15 00:00:00        1  2010     4    14    20       -4  52.2  0.859
#>  6 2010-04-15 00:00:00        1  2010     4    14    19       -5  52.4  1.10 
#>  7 2010-04-15 00:00:00        1  2010     4    14    18       -6  52.6  1.34 
#>  8 2010-04-15 00:00:00        1  2010     4    14    17       -7  52.8  1.58 
#>  9 2010-04-15 00:00:00        1  2010     4    14    16       -8  53.0  1.82 
#> 10 2010-04-15 00:00:00        1  2010     4    14    15       -9  53.1  2.05 
#> # ℹ 5,422 more rows
#> # ℹ 8 more variables: height <dbl>, pressure <dbl>, date2 <dttm>, nox <dbl>,
#> #   no2 <dbl>, o3 <dbl>, pm2.5 <dbl>, pm10 <dbl>
```
